Lecture Newcastle Text analysis
…
Most re-tweeted tweets

The Twitter API helpfully returns a “retweet_count” variable whose
values can easily be sorted. Here we sort all the tweets in descending
order by the size of the “retweet_count”, slice off the top row and
print the date, handle, text and retweet count.

df %>%
  filter(is_retweet == F) %>%
  arrange(desc(retweet_count)) %>%
  select(user_id, text, retweet_count)

## # A tibble: 1,072 × 3
##    user_id             text                                              retwe…¹
##    <chr>               <chr>                                               <dbl>
##  1 18831926            "EXCITING—The Novavax protein-based #COVID vacci…     795
##  2 1426748894751297537 "#COVID DISINFORMATION ALERT\r\n\r\nClaim: @CDCg…     199
##  3 1375470391          "What concerns me the most is 8-10 months from n…     183
##  4 1403201252910059522 "#CDC also known as #Pfizer and #Moderna are sho…      98
##  5 275104144           "Read this article: #WhiteAmericans at end of 20…      59
##  6 811826520           "Longest lockdowns in the world, 800 dead, 1000’…      46
##  7 243983947           "Just days after #XiJinping said there’s to be n…      45
##  8 1375470391          "Why are so many people still vocal about Covid?…      38
##  9 822496079274975232  "Crises create opportunity for durable change; t…      34
## 10 1094971056358637568 "Exactly one year, when New Zealand was still pu…      26
## # … with 1,062 more rows, and abbreviated variable name ¹​retweet_count
…
4.1 Text analysis per words x day

library(tidytext)

rt_words <- df %>%
  select(user_id, text, retweet_count, favorite_count, created_at) %>%
  unnest_tokens(word, text, token = "tweets") %>%
  anti_join(stop_words, by = "word") 

# Count the frequency of the most used words
rt_words %>%
  count(word, sort = T)

## # A tibble: 9,736 × 2
##    word         n
##    <chr>    <int>
##  1 #covid    4750
##  2 people    1526
##  3 amp       1421
##  4 covid      979
##  5 vaccine    880
##  6 #covid19   799
##  7 pfizer     779
##  8 booster    752
##  9 based      732
## 10 vax        724
## # … with 9,726 more rows

Top tweets sorted by the average retweet and likes
received

rt_words %>%
  group_by(word) %>%
  summarise(n = n(),
            avg_retweets = mean(retweet_count),
            avg_favorite = mean(favorite_count)) %>%
  filter(n >= 100)

## # A tibble: 150 × 4
##    word                n avg_retweets avg_favorite
##    <chr>           <int>        <dbl>        <dbl>
##  1 #ba5              695       795.          3.85 
##  2 #booster          720       767.          3.73 
##  3 #cdc              139        35.3         3.53 
##  4 #coronavirus      135         3.97        0.689
##  5 #covid           4750      4282.          1.67 
##  6 #covid19          799        49.9         1.82 
##  7 #covidisnotover   254       126.          4.03 
##  8 #covidisntover    241       160.          1.51 
##  9 #longcovid        158       610.          0.930
## 10 #novavax          708       780.          3.78 
## # … with 140 more rows
…
